{
  "variables": {
    "version": ""
  },
  "provisioners": [
    {
      "type": "shell",
      "execute_command": "echo 'vagrant' | {{.Vars}} sudo -S -E bash '{{.Path}}'",
      "script": "scripts/ansible.sh"
    },
    {
      "type": "shell",
      "execute_command": "echo 'vagrant' | {{.Vars}} sudo -S -E bash '{{.Path}}'",
      "script": "scripts/setup.sh"
    },
    {
      "type": "ansible-local",
      "playbook_file": "../shared/main.yml",
      "galaxy_file": "../shared/requirements.yml"
    },
    {
      "type": "shell",
      "execute_command": "echo 'vagrant' | {{.Vars}} sudo -S -E bash '{{.Path}}'",
      "script": "scripts/docker.sh"
    },
    {
      "type": "shell",
      "execute_command": "echo 'vagrant' | {{.Vars}} sudo -S -E bash '{{.Path}}'",
      "script": "scripts/cleanup.sh"
    }
  ],
  "builders": [
    {
      "type": "virtualbox-iso",
      "boot_command": [
        "<esc><wait>",
        "install <wait>",
        " preseed/url=http://{{ .HTTPIP }}:{{ .HTTPPort }}/preseed.cfg <wait>",
        "debian-installer=en_US.UTF-8 <wait>",
        "auto <wait>",
        "locale=en_US.UTF-8 <wait>",
        "kbd-chooser/method=us <wait>",
        "keyboard-configuration/xkb-keymap=us <wait>",
        "netcfg/get_hostname={{ .Name }} <wait>",
        "netcfg/get_domain=vagrantup.com <wait>",
        "fb=false <wait>",
        "debconf/frontend=noninteractive <wait>",
        "console-setup/ask_detect=false <wait>",
        "console-keymaps-at/keymap=us <wait>",
        "grub-installer/bootdev=/dev/sda <wait>",
        "<enter><wait>"
      ],
      "boot_wait": "5s",
      "disk_size": 81920,
      "guest_os_type": "Debian_64",
      "headless": true,
      "http_directory": "http",
      "iso_urls": [
        "iso/debian-9.11.0-amd64-xfce-CD-1.iso",
        "https://cdimage.debian.org/cdimage/archive/9.12.0/amd64/iso-cd/debian-9.12.0-amd64-xfce-CD-1.iso"
      ],
      "iso_checksum_type": "sha256",
      "iso_checksum": "7bcef5cf4475eae674f23f82e0f72d9cb5fe5dbc40d6f6ce76211b267617c856",
      "ssh_username": "vagrant",
      "ssh_password": "vagrant",
      "ssh_port": 22,
      "ssh_wait_timeout": "10000s",
      "shutdown_command": "echo 'vagrant'|sudo -S shutdown -P now",
      "guest_additions_path": "VBoxGuestAdditions_{{.Version}}.iso",
      "virtualbox_version_file": ".vbox_version",
      "vm_name": "packer-debian-9-docker-amd64",
      "vboxmanage": [
        [
          "modifyvm",
          "{{.Name}}",
          "--memory",
          "1024"
        ],
        [
          "modifyvm",
          "{{.Name}}",
          "--cpus",
          "1"
        ]
      ]
    }
  ],
  "post-processors": [
    [
      {
        "output": "builds/{{.Provider}}-debian9-docker.box",
        "type": "vagrant"
      },
      {
        "type": "vagrant-cloud",
        "box_tag": "pietrom/debian9-docker",
        "version": "{{user `version`}}",
        "access_token": "{{user `access_token`}}"
      }
    ]
  ]
}
